<svg width="13" height="22" viewBox="0 0 13 22" fill="none" xmlns="http://www.w3.org/2000/svg">
<path d="M1.16522 11.7852L10.9662 21.6752C11.3962 22.1083 12.093 22.1083 12.5241 21.6752C12.9542 21.2422 12.9542 20.5389 12.5241 20.1059L3.50059 11.0005L12.5231 1.89523C12.9531 1.46221 12.9531 0.758876 12.5231 0.324763C12.093 -0.108254 11.3951 -0.108254 10.9651 0.324763L1.16413 10.2147C0.740681 10.6433 0.740681 11.3577 1.16522 11.7852Z" fill="#2D9E1A"/>
</svg>
