<svg width="51" height="51" viewBox="0 0 51 51" fill="none" xmlns="http://www.w3.org/2000/svg">
<rect width="36.5529" height="34.8117" rx="3" transform="matrix(-0.707107 0.707107 0.707107 0.707107 25.8468 0)" fill="white"/>
<path d="M18.1652 25.7852L27.9662 35.6752C28.3962 36.1083 29.093 36.1083 29.5241 35.6752C29.9542 35.2422 29.9542 34.5389 29.5241 34.1059L20.5006 25.0005L29.5231 15.8952C29.9531 15.4622 29.9531 14.7589 29.5231 14.3248C29.093 13.8917 28.3951 13.8917 27.9651 14.3248L18.1641 24.2147C17.7407 24.6433 17.7407 25.3577 18.1652 25.7852Z" fill="#2D9E1A"/>
</svg>
