<svg width="14" height="27" viewBox="0 0 14 27" fill="none" xmlns="http://www.w3.org/2000/svg">
<path d="M0.37163 14.1396L11.8061 25.8444C12.3078 26.3569 13.1207 26.3569 13.6237 25.8444C14.1254 25.3319 14.1254 24.4995 13.6237 23.9871L3.09623 13.211L13.6224 2.43488C14.1242 1.92241 14.1242 1.09002 13.6224 0.576249C13.1207 0.0637764 12.3065 0.0637764 11.8048 0.576249L0.370363 12.281C-0.123665 12.7881 -0.123665 13.6336 0.37163 14.1396Z" fill="#2D9E1A"/>
</svg>
