<svg width="32" height="10" viewBox="0 0 32 10" fill="none" xmlns="http://www.w3.org/2000/svg">
<path d="M27.2554 0.255371L25.8301 1.68082L28.1412 3.99192H0V6.00782H28.1412L25.8301 8.31899L27.2554 9.74444L32 4.99987L27.2554 0.255371Z" fill="white"/>
</svg>
