<svg width="19" height="20" viewBox="0 0 19 20" fill="none" xmlns="http://www.w3.org/2000/svg">
<path d="M16.252 3.60352C15.377 2.75586 14.3789 2.09961 13.2578 1.63477C12.1641 1.16992 11.0156 0.9375 9.8125 0.9375C8.17188 0.9375 6.6543 1.34766 5.25977 2.16797C3.86523 2.98828 2.75781 4.0957 1.9375 5.49023C1.11719 6.88477 0.707031 8.40234 0.707031 10.043C0.707031 11.6836 1.11719 13.2012 1.9375 14.5957L0.625 19.3125L5.46484 18.041C6.80469 18.7793 8.25391 19.1484 9.8125 19.1484C11.4531 19.1484 12.9707 18.7383 14.3652 17.918C15.7871 17.0977 16.9082 15.9902 17.7285 14.5957C18.5762 13.2012 19 11.6836 19 10.043C19 8.83984 18.7539 7.69141 18.2617 6.59766C17.7969 5.47656 17.127 4.47852 16.252 3.60352ZM9.8125 17.6309C8.41797 17.6309 7.13281 17.2754 5.95703 16.5645L5.66992 16.4004L2.79883 17.1387L3.57812 14.3496L3.41406 14.0625C2.62109 12.832 2.22461 11.4922 2.22461 10.043C2.22461 8.67578 2.56641 7.41797 3.25 6.26953C3.93359 5.09375 4.84961 4.16406 5.99805 3.48047C7.17383 2.79687 8.44531 2.45508 9.8125 2.45508C10.8242 2.45508 11.7812 2.64648 12.6836 3.0293C13.6133 3.41211 14.4336 3.97266 15.1445 4.71094C15.8828 5.42187 16.457 6.24219 16.8672 7.17188C17.2773 8.10156 17.4824 9.05859 17.4824 10.043C17.4824 11.4102 17.127 12.6816 16.416 13.8574C15.7324 15.0059 14.8027 15.9219 13.627 16.6055C12.4512 17.2891 11.1797 17.6309 9.8125 17.6309ZM13.9551 11.9297C13.1348 11.5195 12.6152 11.2734 12.3965 11.1914C12.2871 11.1641 12.1914 11.1504 12.1094 11.1504C12.0273 11.1504 11.959 11.2051 11.9043 11.3145C11.7676 11.5059 11.5215 11.8066 11.166 12.2168C11.0566 12.3535 10.8926 12.3672 10.6738 12.2578C9.9082 11.875 9.33398 11.5332 8.95117 11.2324C8.43164 10.8223 7.98047 10.2617 7.59766 9.55078C7.51562 9.46875 7.48828 9.40039 7.51562 9.3457C7.54297 9.26367 7.61133 9.16797 7.7207 9.05859C7.93945 8.83984 8.11719 8.59375 8.25391 8.32031C8.30859 8.21094 8.29492 8.07422 8.21289 7.91016L7.51562 6.22852C7.46094 6.06445 7.39258 5.96875 7.31055 5.94141C7.25586 5.88672 7.17383 5.85938 7.06445 5.85938H6.57227C6.35352 5.85938 6.14844 5.95508 5.95703 6.14648L5.91602 6.1875C5.42383 6.70703 5.17773 7.32227 5.17773 8.0332C5.17773 8.74414 5.47852 9.52344 6.08008 10.3711L6.16211 10.4531C7.31055 12.0938 8.58203 13.2148 9.97656 13.8164C10.6602 14.1172 11.207 14.3086 11.6172 14.3906C11.9727 14.4453 12.3418 14.4453 12.7246 14.3906C12.9707 14.3633 13.2578 14.2402 13.5859 14.0215C13.9414 13.7754 14.1602 13.543 14.2422 13.3242C14.3516 13.0781 14.4062 12.8457 14.4062 12.627C14.4336 12.4082 14.4336 12.2715 14.4062 12.2168C14.3789 12.1621 14.2695 12.0938 14.0781 12.0117L13.9551 11.9297Z" fill="#229B1F"/>
</svg>
