<svg width="23" height="24" viewBox="0 0 23 24" fill="none" xmlns="http://www.w3.org/2000/svg">
<path d="M1.12566 22.8465C1.28722 23.0093 1.51419 23.1 1.75 23.1H21.25C21.4859 23.1 21.713 23.0093 21.8746 22.8463L21.8746 22.8463C22.0352 22.6841 22.1184 22.4648 22.0966 22.2409L22.0966 22.2408L20.5966 7.11576L20.5966 7.11572C20.5556 6.7039 20.1837 6.4 19.75 6.4H16.1V5.125C16.1 2.78683 14.0294 0.9 11.5 0.9C8.97141 0.9 6.90001 2.78682 6.90001 5.125V6.4H3.25C2.81711 6.4 2.4445 6.70384 2.40349 7.11572L2.40349 7.11576L0.903486 22.2408L0.903473 22.2409C0.881706 22.4636 0.962918 22.6838 1.12566 22.8465ZM1.12566 22.8465C1.1256 22.8464 1.12554 22.8463 1.12548 22.8463L1.1965 22.7759M1.12566 22.8465C1.12572 22.8465 1.12578 22.8466 1.12583 22.8466L1.1965 22.7759M1.1965 22.7759C1.054 22.6336 0.984248 22.4424 1.003 22.2506L19.75 6.5C20.1393 6.5 20.4618 6.77156 20.497 7.12562L21.997 22.2506C22.0158 22.4431 21.9445 22.6336 21.8035 22.7759C21.6618 22.9189 21.4608 23 21.25 23H1.75C1.53925 23 1.33825 22.9189 1.1965 22.7759ZM8.60002 5.125C8.60002 3.67163 9.89311 2.475 11.5 2.475C13.1069 2.475 14.4 3.67163 14.4 5.125V6.4H8.60002V5.125ZM18.9747 7.975L20.3176 21.525H2.6824L4.02533 7.975H6.90001V9.38171C6.45409 9.64097 6.15001 10.0961 6.15001 10.625C6.15001 11.4472 6.87515 12.1 7.75001 12.1C8.62488 12.1 9.35002 11.4472 9.35002 10.625C9.35002 10.0961 9.04593 9.64097 8.60002 9.38171V7.975H14.4V9.3817C13.9541 9.6409 13.65 10.0954 13.65 10.625C13.65 11.4472 14.3752 12.1 15.25 12.1C16.1249 12.1 16.85 11.4472 16.85 10.625C16.85 10.0961 16.5467 9.64096 16.1 9.38166V7.975H18.9747Z" fill="#2A610F" stroke="#2A610F" stroke-width="0.2"/>
</svg>
