<svg width="177" height="86" viewBox="0 0 177 86" fill="none" xmlns="http://www.w3.org/2000/svg">
<path d="M7.52 28.74H19.92V32H3.66V3.34H7.52V28.74ZM49.3588 17.68C49.3588 19.8267 49.0188 21.8 48.3388 23.6C47.6588 25.3867 46.6988 26.9267 45.4588 28.22C44.2188 29.5133 42.7254 30.52 40.9788 31.24C39.2454 31.9467 37.3254 32.3 35.2188 32.3C33.1121 32.3 31.1921 31.9467 29.4588 31.24C27.7254 30.52 26.2388 29.5133 24.9988 28.22C23.7588 26.9267 22.7988 25.3867 22.1188 23.6C21.4388 21.8 21.0988 19.8267 21.0988 17.68C21.0988 15.5333 21.4388 13.5667 22.1188 11.78C22.7988 9.98 23.7588 8.43333 24.9988 7.14C26.2388 5.83333 27.7254 4.82 29.4588 4.1C31.1921 3.38 33.1121 3.02 35.2188 3.02C37.3254 3.02 39.2454 3.38 40.9788 4.1C42.7254 4.82 44.2188 5.83333 45.4588 7.14C46.6988 8.43333 47.6588 9.98 48.3388 11.78C49.0188 13.5667 49.3588 15.5333 49.3588 17.68ZM45.3788 17.68C45.3788 15.92 45.1388 14.34 44.6588 12.94C44.1788 11.54 43.4988 10.36 42.6188 9.4C41.7388 8.42667 40.6721 7.68 39.4187 7.16C38.1654 6.64 36.7654 6.38 35.2188 6.38C33.6854 6.38 32.2921 6.64 31.0388 7.16C29.7854 7.68 28.7121 8.42667 27.8188 9.4C26.9388 10.36 26.2588 11.54 25.7788 12.94C25.2988 14.34 25.0588 15.92 25.0588 17.68C25.0588 19.44 25.2988 21.02 25.7788 22.42C26.2588 23.8067 26.9388 24.9867 27.8188 25.96C28.7121 26.92 29.7854 27.66 31.0388 28.18C32.2921 28.6867 33.6854 28.94 35.2188 28.94C36.7654 28.94 38.1654 28.6867 39.4187 28.18C40.6721 27.66 41.7388 26.92 42.6188 25.96C43.4988 24.9867 44.1788 23.8067 44.6588 22.42C45.1388 21.02 45.3788 19.44 45.3788 17.68ZM78.19 29.22C76.75 30.26 75.21 31.04 73.57 31.56C71.9433 32.0667 70.1567 32.32 68.21 32.32C65.9033 32.32 63.8233 31.9667 61.97 31.26C60.1167 30.54 58.53 29.54 57.21 28.26C55.9033 26.9667 54.8967 25.42 54.19 23.62C53.4833 21.82 53.13 19.84 53.13 17.68C53.13 15.4933 53.47 13.5 54.15 11.7C54.8433 9.9 55.8233 8.36 57.09 7.08C58.3567 5.78667 59.8967 4.78667 61.71 4.08C63.5233 3.37333 65.55 3.02 67.79 3.02C68.9233 3.02 69.9767 3.10666 70.95 3.28C71.9233 3.44 72.8233 3.68 73.65 4C74.4767 4.30666 75.2433 4.68667 75.95 5.14C76.6567 5.58 77.3167 6.08 77.93 6.64L76.83 8.4C76.6567 8.66667 76.43 8.84 76.15 8.92C75.8833 8.98667 75.5833 8.92 75.25 8.72C74.93 8.53333 74.5633 8.30666 74.15 8.04C73.7367 7.77333 73.23 7.52 72.63 7.28C72.0433 7.02666 71.3433 6.81333 70.53 6.64C69.73 6.46667 68.7767 6.38 67.67 6.38C66.0567 6.38 64.5967 6.64667 63.29 7.18C61.9833 7.7 60.87 8.45333 59.95 9.44C59.03 10.4133 58.3233 11.6 57.83 13C57.3367 14.3867 57.09 15.9467 57.09 17.68C57.09 19.48 57.3433 21.0933 57.85 22.52C58.37 23.9333 59.1033 25.14 60.05 26.14C61.01 27.1267 62.17 27.88 63.53 28.4C64.89 28.92 66.4167 29.18 68.11 29.18C68.7767 29.18 69.3967 29.14 69.97 29.06C70.5567 28.98 71.1167 28.8733 71.65 28.74C72.1833 28.5933 72.6967 28.42 73.19 28.22C73.6833 28.0067 74.1833 27.7667 74.69 27.5V21.18H70.23C69.9767 21.18 69.77 21.1067 69.61 20.96C69.4633 20.8133 69.39 20.6333 69.39 20.42V18.22H78.19V29.22ZM110.609 17.68C110.609 19.8267 110.269 21.8 109.589 23.6C108.909 25.3867 107.949 26.9267 106.709 28.22C105.469 29.5133 103.975 30.52 102.229 31.24C100.495 31.9467 98.5754 32.3 96.4688 32.3C94.3621 32.3 92.4421 31.9467 90.7088 31.24C88.9754 30.52 87.4888 29.5133 86.2488 28.22C85.0088 26.9267 84.0488 25.3867 83.3688 23.6C82.6888 21.8 82.3488 19.8267 82.3488 17.68C82.3488 15.5333 82.6888 13.5667 83.3688 11.78C84.0488 9.98 85.0088 8.43333 86.2488 7.14C87.4888 5.83333 88.9754 4.82 90.7088 4.1C92.4421 3.38 94.3621 3.02 96.4688 3.02C98.5754 3.02 100.495 3.38 102.229 4.1C103.975 4.82 105.469 5.83333 106.709 7.14C107.949 8.43333 108.909 9.98 109.589 11.78C110.269 13.5667 110.609 15.5333 110.609 17.68ZM106.629 17.68C106.629 15.92 106.389 14.34 105.909 12.94C105.429 11.54 104.749 10.36 103.869 9.4C102.989 8.42667 101.922 7.68 100.669 7.16C99.4154 6.64 98.0154 6.38 96.4688 6.38C94.9354 6.38 93.5421 6.64 92.2888 7.16C91.0354 7.68 89.9621 8.42667 89.0688 9.4C88.1888 10.36 87.5088 11.54 87.0288 12.94C86.5488 14.34 86.3088 15.92 86.3088 17.68C86.3088 19.44 86.5488 21.02 87.0288 22.42C87.5088 23.8067 88.1888 24.9867 89.0688 25.96C89.9621 26.92 91.0354 27.66 92.2888 28.18C93.5421 28.6867 94.9354 28.94 96.4688 28.94C98.0154 28.94 99.4154 28.6867 100.669 28.18C101.922 27.66 102.989 26.92 103.869 25.96C104.749 24.9867 105.429 23.8067 105.909 22.42C106.389 21.02 106.629 19.44 106.629 17.68Z" fill="#DCDCDC"/>
<path d="M7.52 63.74H19.92V67H3.66V38.34H7.52V63.74ZM49.3588 52.68C49.3588 54.8267 49.0188 56.8 48.3388 58.6C47.6588 60.3867 46.6988 61.9267 45.4588 63.22C44.2188 64.5133 42.7254 65.52 40.9788 66.24C39.2454 66.9467 37.3254 67.3 35.2188 67.3C33.1121 67.3 31.1921 66.9467 29.4588 66.24C27.7254 65.52 26.2388 64.5133 24.9988 63.22C23.7588 61.9267 22.7988 60.3867 22.1188 58.6C21.4388 56.8 21.0988 54.8267 21.0988 52.68C21.0988 50.5333 21.4388 48.5667 22.1188 46.78C22.7988 44.98 23.7588 43.4333 24.9988 42.14C26.2388 40.8333 27.7254 39.82 29.4588 39.1C31.1921 38.38 33.1121 38.02 35.2188 38.02C37.3254 38.02 39.2454 38.38 40.9788 39.1C42.7254 39.82 44.2188 40.8333 45.4588 42.14C46.6988 43.4333 47.6588 44.98 48.3388 46.78C49.0188 48.5667 49.3588 50.5333 49.3588 52.68ZM45.3788 52.68C45.3788 50.92 45.1388 49.34 44.6588 47.94C44.1788 46.54 43.4988 45.36 42.6188 44.4C41.7388 43.4267 40.6721 42.68 39.4187 42.16C38.1654 41.64 36.7654 41.38 35.2188 41.38C33.6854 41.38 32.2921 41.64 31.0388 42.16C29.7854 42.68 28.7121 43.4267 27.8188 44.4C26.9388 45.36 26.2588 46.54 25.7788 47.94C25.2988 49.34 25.0588 50.92 25.0588 52.68C25.0588 54.44 25.2988 56.02 25.7788 57.42C26.2588 58.8067 26.9388 59.9867 27.8188 60.96C28.7121 61.92 29.7854 62.66 31.0388 63.18C32.2921 63.6867 33.6854 63.94 35.2188 63.94C36.7654 63.94 38.1654 63.6867 39.4187 63.18C40.6721 62.66 41.7388 61.92 42.6188 60.96C43.4988 59.9867 44.1788 58.8067 44.6588 57.42C45.1388 56.02 45.3788 54.44 45.3788 52.68ZM78.19 64.22C76.75 65.26 75.21 66.04 73.57 66.56C71.9433 67.0667 70.1567 67.32 68.21 67.32C65.9033 67.32 63.8233 66.9667 61.97 66.26C60.1167 65.54 58.53 64.54 57.21 63.26C55.9033 61.9667 54.8967 60.42 54.19 58.62C53.4833 56.82 53.13 54.84 53.13 52.68C53.13 50.4933 53.47 48.5 54.15 46.7C54.8433 44.9 55.8233 43.36 57.09 42.08C58.3567 40.7867 59.8967 39.7867 61.71 39.08C63.5233 38.3733 65.55 38.02 67.79 38.02C68.9233 38.02 69.9767 38.1067 70.95 38.28C71.9233 38.44 72.8233 38.68 73.65 39C74.4767 39.3067 75.2433 39.6867 75.95 40.14C76.6567 40.58 77.3167 41.08 77.93 41.64L76.83 43.4C76.6567 43.6667 76.43 43.84 76.15 43.92C75.8833 43.9867 75.5833 43.92 75.25 43.72C74.93 43.5333 74.5633 43.3067 74.15 43.04C73.7367 42.7733 73.23 42.52 72.63 42.28C72.0433 42.0267 71.3433 41.8133 70.53 41.64C69.73 41.4667 68.7767 41.38 67.67 41.38C66.0567 41.38 64.5967 41.6467 63.29 42.18C61.9833 42.7 60.87 43.4533 59.95 44.44C59.03 45.4133 58.3233 46.6 57.83 48C57.3367 49.3867 57.09 50.9467 57.09 52.68C57.09 54.48 57.3433 56.0933 57.85 57.52C58.37 58.9333 59.1033 60.14 60.05 61.14C61.01 62.1267 62.17 62.88 63.53 63.4C64.89 63.92 66.4167 64.18 68.11 64.18C68.7767 64.18 69.3967 64.14 69.97 64.06C70.5567 63.98 71.1167 63.8733 71.65 63.74C72.1833 63.5933 72.6967 63.42 73.19 63.22C73.6833 63.0067 74.1833 62.7667 74.69 62.5V56.18H70.23C69.9767 56.18 69.77 56.1067 69.61 55.96C69.4633 55.8133 69.39 55.6333 69.39 55.42V53.22H78.19V64.22ZM110.609 52.68C110.609 54.8267 110.269 56.8 109.589 58.6C108.909 60.3867 107.949 61.9267 106.709 63.22C105.469 64.5133 103.975 65.52 102.229 66.24C100.495 66.9467 98.5754 67.3 96.4688 67.3C94.3621 67.3 92.4421 66.9467 90.7088 66.24C88.9754 65.52 87.4888 64.5133 86.2488 63.22C85.0088 61.9267 84.0488 60.3867 83.3688 58.6C82.6888 56.8 82.3488 54.8267 82.3488 52.68C82.3488 50.5333 82.6888 48.5667 83.3688 46.78C84.0488 44.98 85.0088 43.4333 86.2488 42.14C87.4888 40.8333 88.9754 39.82 90.7088 39.1C92.4421 38.38 94.3621 38.02 96.4688 38.02C98.5754 38.02 100.495 38.38 102.229 39.1C103.975 39.82 105.469 40.8333 106.709 42.14C107.949 43.4333 108.909 44.98 109.589 46.78C110.269 48.5667 110.609 50.5333 110.609 52.68ZM106.629 52.68C106.629 50.92 106.389 49.34 105.909 47.94C105.429 46.54 104.749 45.36 103.869 44.4C102.989 43.4267 101.922 42.68 100.669 42.16C99.4154 41.64 98.0154 41.38 96.4688 41.38C94.9354 41.38 93.5421 41.64 92.2888 42.16C91.0354 42.68 89.9621 43.4267 89.0688 44.4C88.1888 45.36 87.5088 46.54 87.0288 47.94C86.5488 49.34 86.3088 50.92 86.3088 52.68C86.3088 54.44 86.5488 56.02 87.0288 57.42C87.5088 58.8067 88.1888 59.9867 89.0688 60.96C89.9621 61.92 91.0354 62.66 92.2888 63.18C93.5421 63.6867 94.9354 63.94 96.4688 63.94C98.0154 63.94 99.4154 63.6867 100.669 63.18C101.922 62.66 102.989 61.92 103.869 60.96C104.749 59.9867 105.429 58.8067 105.909 57.42C106.389 56.02 106.629 54.44 106.629 52.68Z" fill="#DCDCDC"/>
<path d="M69.52 28.74H81.92V32H65.66V3.34H69.52V28.74ZM111.359 17.68C111.359 19.8267 111.019 21.8 110.339 23.6C109.659 25.3867 108.699 26.9267 107.459 28.22C106.219 29.5133 104.725 30.52 102.979 31.24C101.245 31.9467 99.3254 32.3 97.2188 32.3C95.1121 32.3 93.1921 31.9467 91.4588 31.24C89.7254 30.52 88.2388 29.5133 86.9988 28.22C85.7588 26.9267 84.7988 25.3867 84.1188 23.6C83.4388 21.8 83.0988 19.8267 83.0988 17.68C83.0988 15.5333 83.4388 13.5667 84.1188 11.78C84.7988 9.98 85.7588 8.43333 86.9988 7.14C88.2388 5.83333 89.7254 4.82 91.4588 4.1C93.1921 3.38 95.1121 3.02 97.2188 3.02C99.3254 3.02 101.245 3.38 102.979 4.1C104.725 4.82 106.219 5.83333 107.459 7.14C108.699 8.43333 109.659 9.98 110.339 11.78C111.019 13.5667 111.359 15.5333 111.359 17.68ZM107.379 17.68C107.379 15.92 107.139 14.34 106.659 12.94C106.179 11.54 105.499 10.36 104.619 9.4C103.739 8.42667 102.672 7.68 101.419 7.16C100.165 6.64 98.7654 6.38 97.2188 6.38C95.6854 6.38 94.2921 6.64 93.0388 7.16C91.7854 7.68 90.7121 8.42667 89.8188 9.4C88.9388 10.36 88.2588 11.54 87.7788 12.94C87.2988 14.34 87.0588 15.92 87.0588 17.68C87.0588 19.44 87.2988 21.02 87.7788 22.42C88.2588 23.8067 88.9388 24.9867 89.8188 25.96C90.7121 26.92 91.7854 27.66 93.0388 28.18C94.2921 28.6867 95.6854 28.94 97.2188 28.94C98.7654 28.94 100.165 28.6867 101.419 28.18C102.672 27.66 103.739 26.92 104.619 25.96C105.499 24.9867 106.179 23.8067 106.659 22.42C107.139 21.02 107.379 19.44 107.379 17.68ZM140.19 29.22C138.75 30.26 137.21 31.04 135.57 31.56C133.943 32.0667 132.157 32.32 130.21 32.32C127.903 32.32 125.823 31.9667 123.97 31.26C122.117 30.54 120.53 29.54 119.21 28.26C117.903 26.9667 116.897 25.42 116.19 23.62C115.483 21.82 115.13 19.84 115.13 17.68C115.13 15.4933 115.47 13.5 116.15 11.7C116.843 9.9 117.823 8.36 119.09 7.08C120.357 5.78667 121.897 4.78667 123.71 4.08C125.523 3.37333 127.55 3.02 129.79 3.02C130.923 3.02 131.977 3.10666 132.95 3.28C133.923 3.44 134.823 3.68 135.65 4C136.477 4.30666 137.243 4.68667 137.95 5.14C138.657 5.58 139.317 6.08 139.93 6.64L138.83 8.4C138.657 8.66667 138.43 8.84 138.15 8.92C137.883 8.98667 137.583 8.92 137.25 8.72C136.93 8.53333 136.563 8.30666 136.15 8.04C135.737 7.77333 135.23 7.52 134.63 7.28C134.043 7.02666 133.343 6.81333 132.53 6.64C131.73 6.46667 130.777 6.38 129.67 6.38C128.057 6.38 126.597 6.64667 125.29 7.18C123.983 7.7 122.87 8.45333 121.95 9.44C121.03 10.4133 120.323 11.6 119.83 13C119.337 14.3867 119.09 15.9467 119.09 17.68C119.09 19.48 119.343 21.0933 119.85 22.52C120.37 23.9333 121.103 25.14 122.05 26.14C123.01 27.1267 124.17 27.88 125.53 28.4C126.89 28.92 128.417 29.18 130.11 29.18C130.777 29.18 131.397 29.14 131.97 29.06C132.557 28.98 133.117 28.8733 133.65 28.74C134.183 28.5933 134.697 28.42 135.19 28.22C135.683 28.0067 136.183 27.7667 136.69 27.5V21.18H132.23C131.977 21.18 131.77 21.1067 131.61 20.96C131.463 20.8133 131.39 20.6333 131.39 20.42V18.22H140.19V29.22ZM172.609 17.68C172.609 19.8267 172.269 21.8 171.589 23.6C170.909 25.3867 169.949 26.9267 168.709 28.22C167.469 29.5133 165.975 30.52 164.229 31.24C162.495 31.9467 160.575 32.3 158.469 32.3C156.362 32.3 154.442 31.9467 152.709 31.24C150.975 30.52 149.489 29.5133 148.249 28.22C147.009 26.9267 146.049 25.3867 145.369 23.6C144.689 21.8 144.349 19.8267 144.349 17.68C144.349 15.5333 144.689 13.5667 145.369 11.78C146.049 9.98 147.009 8.43333 148.249 7.14C149.489 5.83333 150.975 4.82 152.709 4.1C154.442 3.38 156.362 3.02 158.469 3.02C160.575 3.02 162.495 3.38 164.229 4.1C165.975 4.82 167.469 5.83333 168.709 7.14C169.949 8.43333 170.909 9.98 171.589 11.78C172.269 13.5667 172.609 15.5333 172.609 17.68ZM168.629 17.68C168.629 15.92 168.389 14.34 167.909 12.94C167.429 11.54 166.749 10.36 165.869 9.4C164.989 8.42667 163.922 7.68 162.669 7.16C161.415 6.64 160.015 6.38 158.469 6.38C156.935 6.38 155.542 6.64 154.289 7.16C153.035 7.68 151.962 8.42667 151.069 9.4C150.189 10.36 149.509 11.54 149.029 12.94C148.549 14.34 148.309 15.92 148.309 17.68C148.309 19.44 148.549 21.02 149.029 22.42C149.509 23.8067 150.189 24.9867 151.069 25.96C151.962 26.92 153.035 27.66 154.289 28.18C155.542 28.6867 156.935 28.94 158.469 28.94C160.015 28.94 161.415 28.6867 162.669 28.18C163.922 27.66 164.989 26.92 165.869 25.96C166.749 24.9867 167.429 23.8067 167.909 22.42C168.389 21.02 168.629 19.44 168.629 17.68Z" fill="#DCDCDC"/>
<path d="M69.52 63.74H81.92V67H65.66V38.34H69.52V63.74ZM111.359 52.68C111.359 54.8267 111.019 56.8 110.339 58.6C109.659 60.3867 108.699 61.9267 107.459 63.22C106.219 64.5133 104.725 65.52 102.979 66.24C101.245 66.9467 99.3254 67.3 97.2188 67.3C95.1121 67.3 93.1921 66.9467 91.4588 66.24C89.7254 65.52 88.2388 64.5133 86.9988 63.22C85.7588 61.9267 84.7988 60.3867 84.1188 58.6C83.4388 56.8 83.0988 54.8267 83.0988 52.68C83.0988 50.5333 83.4388 48.5667 84.1188 46.78C84.7988 44.98 85.7588 43.4333 86.9988 42.14C88.2388 40.8333 89.7254 39.82 91.4588 39.1C93.1921 38.38 95.1121 38.02 97.2188 38.02C99.3254 38.02 101.245 38.38 102.979 39.1C104.725 39.82 106.219 40.8333 107.459 42.14C108.699 43.4333 109.659 44.98 110.339 46.78C111.019 48.5667 111.359 50.5333 111.359 52.68ZM107.379 52.68C107.379 50.92 107.139 49.34 106.659 47.94C106.179 46.54 105.499 45.36 104.619 44.4C103.739 43.4267 102.672 42.68 101.419 42.16C100.165 41.64 98.7654 41.38 97.2188 41.38C95.6854 41.38 94.2921 41.64 93.0388 42.16C91.7854 42.68 90.7121 43.4267 89.8188 44.4C88.9388 45.36 88.2588 46.54 87.7788 47.94C87.2988 49.34 87.0588 50.92 87.0588 52.68C87.0588 54.44 87.2988 56.02 87.7788 57.42C88.2588 58.8067 88.9388 59.9867 89.8188 60.96C90.7121 61.92 91.7854 62.66 93.0388 63.18C94.2921 63.6867 95.6854 63.94 97.2188 63.94C98.7654 63.94 100.165 63.6867 101.419 63.18C102.672 62.66 103.739 61.92 104.619 60.96C105.499 59.9867 106.179 58.8067 106.659 57.42C107.139 56.02 107.379 54.44 107.379 52.68ZM140.19 64.22C138.75 65.26 137.21 66.04 135.57 66.56C133.943 67.0667 132.157 67.32 130.21 67.32C127.903 67.32 125.823 66.9667 123.97 66.26C122.117 65.54 120.53 64.54 119.21 63.26C117.903 61.9667 116.897 60.42 116.19 58.62C115.483 56.82 115.13 54.84 115.13 52.68C115.13 50.4933 115.47 48.5 116.15 46.7C116.843 44.9 117.823 43.36 119.09 42.08C120.357 40.7867 121.897 39.7867 123.71 39.08C125.523 38.3733 127.55 38.02 129.79 38.02C130.923 38.02 131.977 38.1067 132.95 38.28C133.923 38.44 134.823 38.68 135.65 39C136.477 39.3067 137.243 39.6867 137.95 40.14C138.657 40.58 139.317 41.08 139.93 41.64L138.83 43.4C138.657 43.6667 138.43 43.84 138.15 43.92C137.883 43.9867 137.583 43.92 137.25 43.72C136.93 43.5333 136.563 43.3067 136.15 43.04C135.737 42.7733 135.23 42.52 134.63 42.28C134.043 42.0267 133.343 41.8133 132.53 41.64C131.73 41.4667 130.777 41.38 129.67 41.38C128.057 41.38 126.597 41.6467 125.29 42.18C123.983 42.7 122.87 43.4533 121.95 44.44C121.03 45.4133 120.323 46.6 119.83 48C119.337 49.3867 119.09 50.9467 119.09 52.68C119.09 54.48 119.343 56.0933 119.85 57.52C120.37 58.9333 121.103 60.14 122.05 61.14C123.01 62.1267 124.17 62.88 125.53 63.4C126.89 63.92 128.417 64.18 130.11 64.18C130.777 64.18 131.397 64.14 131.97 64.06C132.557 63.98 133.117 63.8733 133.65 63.74C134.183 63.5933 134.697 63.42 135.19 63.22C135.683 63.0067 136.183 62.7667 136.69 62.5V56.18H132.23C131.977 56.18 131.77 56.1067 131.61 55.96C131.463 55.8133 131.39 55.6333 131.39 55.42V53.22H140.19V64.22ZM172.609 52.68C172.609 54.8267 172.269 56.8 171.589 58.6C170.909 60.3867 169.949 61.9267 168.709 63.22C167.469 64.5133 165.975 65.52 164.229 66.24C162.495 66.9467 160.575 67.3 158.469 67.3C156.362 67.3 154.442 66.9467 152.709 66.24C150.975 65.52 149.489 64.5133 148.249 63.22C147.009 61.9267 146.049 60.3867 145.369 58.6C144.689 56.8 144.349 54.8267 144.349 52.68C144.349 50.5333 144.689 48.5667 145.369 46.78C146.049 44.98 147.009 43.4333 148.249 42.14C149.489 40.8333 150.975 39.82 152.709 39.1C154.442 38.38 156.362 38.02 158.469 38.02C160.575 38.02 162.495 38.38 164.229 39.1C165.975 39.82 167.469 40.8333 168.709 42.14C169.949 43.4333 170.909 44.98 171.589 46.78C172.269 48.5667 172.609 50.5333 172.609 52.68ZM168.629 52.68C168.629 50.92 168.389 49.34 167.909 47.94C167.429 46.54 166.749 45.36 165.869 44.4C164.989 43.4267 163.922 42.68 162.669 42.16C161.415 41.64 160.015 41.38 158.469 41.38C156.935 41.38 155.542 41.64 154.289 42.16C153.035 42.68 151.962 43.4267 151.069 44.4C150.189 45.36 149.509 46.54 149.029 47.94C148.549 49.34 148.309 50.92 148.309 52.68C148.309 54.44 148.549 56.02 149.029 57.42C149.509 58.8067 150.189 59.9867 151.069 60.96C151.962 61.92 153.035 62.66 154.289 63.18C155.542 63.6867 156.935 63.94 158.469 63.94C160.015 63.94 161.415 63.6867 162.669 63.18C163.922 62.66 164.989 61.92 165.869 60.96C166.749 59.9867 167.429 58.8067 167.909 57.42C168.389 56.02 168.629 54.44 168.629 52.68Z" fill="#DCDCDC"/>
<path d="M7.52 79.74H19.92V83H3.66V54.34H7.52V79.74ZM49.3588 68.68C49.3588 70.8267 49.0188 72.8 48.3388 74.6C47.6588 76.3867 46.6988 77.9267 45.4588 79.22C44.2188 80.5133 42.7254 81.52 40.9788 82.24C39.2454 82.9467 37.3254 83.3 35.2188 83.3C33.1121 83.3 31.1921 82.9467 29.4588 82.24C27.7254 81.52 26.2388 80.5133 24.9988 79.22C23.7588 77.9267 22.7988 76.3867 22.1188 74.6C21.4388 72.8 21.0988 70.8267 21.0988 68.68C21.0988 66.5333 21.4388 64.5667 22.1188 62.78C22.7988 60.98 23.7588 59.4333 24.9988 58.14C26.2388 56.8333 27.7254 55.82 29.4588 55.1C31.1921 54.38 33.1121 54.02 35.2188 54.02C37.3254 54.02 39.2454 54.38 40.9788 55.1C42.7254 55.82 44.2188 56.8333 45.4588 58.14C46.6988 59.4333 47.6588 60.98 48.3388 62.78C49.0188 64.5667 49.3588 66.5333 49.3588 68.68ZM45.3788 68.68C45.3788 66.92 45.1388 65.34 44.6588 63.94C44.1788 62.54 43.4988 61.36 42.6188 60.4C41.7388 59.4267 40.6721 58.68 39.4187 58.16C38.1654 57.64 36.7654 57.38 35.2188 57.38C33.6854 57.38 32.2921 57.64 31.0388 58.16C29.7854 58.68 28.7121 59.4267 27.8188 60.4C26.9388 61.36 26.2588 62.54 25.7788 63.94C25.2988 65.34 25.0588 66.92 25.0588 68.68C25.0588 70.44 25.2988 72.02 25.7788 73.42C26.2588 74.8067 26.9388 75.9867 27.8188 76.96C28.7121 77.92 29.7854 78.66 31.0388 79.18C32.2921 79.6867 33.6854 79.94 35.2188 79.94C36.7654 79.94 38.1654 79.6867 39.4187 79.18C40.6721 78.66 41.7388 77.92 42.6188 76.96C43.4988 75.9867 44.1788 74.8067 44.6588 73.42C45.1388 72.02 45.3788 70.44 45.3788 68.68ZM78.19 80.22C76.75 81.26 75.21 82.04 73.57 82.56C71.9433 83.0667 70.1567 83.32 68.21 83.32C65.9033 83.32 63.8233 82.9667 61.97 82.26C60.1167 81.54 58.53 80.54 57.21 79.26C55.9033 77.9667 54.8967 76.42 54.19 74.62C53.4833 72.82 53.13 70.84 53.13 68.68C53.13 66.4933 53.47 64.5 54.15 62.7C54.8433 60.9 55.8233 59.36 57.09 58.08C58.3567 56.7867 59.8967 55.7867 61.71 55.08C63.5233 54.3733 65.55 54.02 67.79 54.02C68.9233 54.02 69.9767 54.1067 70.95 54.28C71.9233 54.44 72.8233 54.68 73.65 55C74.4767 55.3067 75.2433 55.6867 75.95 56.14C76.6567 56.58 77.3167 57.08 77.93 57.64L76.83 59.4C76.6567 59.6667 76.43 59.84 76.15 59.92C75.8833 59.9867 75.5833 59.92 75.25 59.72C74.93 59.5333 74.5633 59.3067 74.15 59.04C73.7367 58.7733 73.23 58.52 72.63 58.28C72.0433 58.0267 71.3433 57.8133 70.53 57.64C69.73 57.4667 68.7767 57.38 67.67 57.38C66.0567 57.38 64.5967 57.6467 63.29 58.18C61.9833 58.7 60.87 59.4533 59.95 60.44C59.03 61.4133 58.3233 62.6 57.83 64C57.3367 65.3867 57.09 66.9467 57.09 68.68C57.09 70.48 57.3433 72.0933 57.85 73.52C58.37 74.9333 59.1033 76.14 60.05 77.14C61.01 78.1267 62.17 78.88 63.53 79.4C64.89 79.92 66.4167 80.18 68.11 80.18C68.7767 80.18 69.3967 80.14 69.97 80.06C70.5567 79.98 71.1167 79.8733 71.65 79.74C72.1833 79.5933 72.6967 79.42 73.19 79.22C73.6833 79.0067 74.1833 78.7667 74.69 78.5V72.18H70.23C69.9767 72.18 69.77 72.1067 69.61 71.96C69.4633 71.8133 69.39 71.6333 69.39 71.42V69.22H78.19V80.22ZM110.609 68.68C110.609 70.8267 110.269 72.8 109.589 74.6C108.909 76.3867 107.949 77.9267 106.709 79.22C105.469 80.5133 103.975 81.52 102.229 82.24C100.495 82.9467 98.5754 83.3 96.4688 83.3C94.3621 83.3 92.4421 82.9467 90.7088 82.24C88.9754 81.52 87.4888 80.5133 86.2488 79.22C85.0088 77.9267 84.0488 76.3867 83.3688 74.6C82.6888 72.8 82.3488 70.8267 82.3488 68.68C82.3488 66.5333 82.6888 64.5667 83.3688 62.78C84.0488 60.98 85.0088 59.4333 86.2488 58.14C87.4888 56.8333 88.9754 55.82 90.7088 55.1C92.4421 54.38 94.3621 54.02 96.4688 54.02C98.5754 54.02 100.495 54.38 102.229 55.1C103.975 55.82 105.469 56.8333 106.709 58.14C107.949 59.4333 108.909 60.98 109.589 62.78C110.269 64.5667 110.609 66.5333 110.609 68.68ZM106.629 68.68C106.629 66.92 106.389 65.34 105.909 63.94C105.429 62.54 104.749 61.36 103.869 60.4C102.989 59.4267 101.922 58.68 100.669 58.16C99.4154 57.64 98.0154 57.38 96.4688 57.38C94.9354 57.38 93.5421 57.64 92.2888 58.16C91.0354 58.68 89.9621 59.4267 89.0688 60.4C88.1888 61.36 87.5088 62.54 87.0288 63.94C86.5488 65.34 86.3088 66.92 86.3088 68.68C86.3088 70.44 86.5488 72.02 87.0288 73.42C87.5088 74.8067 88.1888 75.9867 89.0688 76.96C89.9621 77.92 91.0354 78.66 92.2888 79.18C93.5421 79.6867 94.9354 79.94 96.4688 79.94C98.0154 79.94 99.4154 79.6867 100.669 79.18C101.922 78.66 102.989 77.92 103.869 76.96C104.749 75.9867 105.429 74.8067 105.909 73.42C106.389 72.02 106.629 70.44 106.629 68.68Z" fill="#DCDCDC"/>
<path d="M69.52 79.74H81.92V83H65.66V54.34H69.52V79.74ZM111.359 68.68C111.359 70.8267 111.019 72.8 110.339 74.6C109.659 76.3867 108.699 77.9267 107.459 79.22C106.219 80.5133 104.725 81.52 102.979 82.24C101.245 82.9467 99.3254 83.3 97.2188 83.3C95.1121 83.3 93.1921 82.9467 91.4588 82.24C89.7254 81.52 88.2388 80.5133 86.9988 79.22C85.7588 77.9267 84.7988 76.3867 84.1188 74.6C83.4388 72.8 83.0988 70.8267 83.0988 68.68C83.0988 66.5333 83.4388 64.5667 84.1188 62.78C84.7988 60.98 85.7588 59.4333 86.9988 58.14C88.2388 56.8333 89.7254 55.82 91.4588 55.1C93.1921 54.38 95.1121 54.02 97.2188 54.02C99.3254 54.02 101.245 54.38 102.979 55.1C104.725 55.82 106.219 56.8333 107.459 58.14C108.699 59.4333 109.659 60.98 110.339 62.78C111.019 64.5667 111.359 66.5333 111.359 68.68ZM107.379 68.68C107.379 66.92 107.139 65.34 106.659 63.94C106.179 62.54 105.499 61.36 104.619 60.4C103.739 59.4267 102.672 58.68 101.419 58.16C100.165 57.64 98.7654 57.38 97.2188 57.38C95.6854 57.38 94.2921 57.64 93.0388 58.16C91.7854 58.68 90.7121 59.4267 89.8188 60.4C88.9388 61.36 88.2588 62.54 87.7788 63.94C87.2988 65.34 87.0588 66.92 87.0588 68.68C87.0588 70.44 87.2988 72.02 87.7788 73.42C88.2588 74.8067 88.9388 75.9867 89.8188 76.96C90.7121 77.92 91.7854 78.66 93.0388 79.18C94.2921 79.6867 95.6854 79.94 97.2188 79.94C98.7654 79.94 100.165 79.6867 101.419 79.18C102.672 78.66 103.739 77.92 104.619 76.96C105.499 75.9867 106.179 74.8067 106.659 73.42C107.139 72.02 107.379 70.44 107.379 68.68ZM140.19 80.22C138.75 81.26 137.21 82.04 135.57 82.56C133.943 83.0667 132.157 83.32 130.21 83.32C127.903 83.32 125.823 82.9667 123.97 82.26C122.117 81.54 120.53 80.54 119.21 79.26C117.903 77.9667 116.897 76.42 116.19 74.62C115.483 72.82 115.13 70.84 115.13 68.68C115.13 66.4933 115.47 64.5 116.15 62.7C116.843 60.9 117.823 59.36 119.09 58.08C120.357 56.7867 121.897 55.7867 123.71 55.08C125.523 54.3733 127.55 54.02 129.79 54.02C130.923 54.02 131.977 54.1067 132.95 54.28C133.923 54.44 134.823 54.68 135.65 55C136.477 55.3067 137.243 55.6867 137.95 56.14C138.657 56.58 139.317 57.08 139.93 57.64L138.83 59.4C138.657 59.6667 138.43 59.84 138.15 59.92C137.883 59.9867 137.583 59.92 137.25 59.72C136.93 59.5333 136.563 59.3067 136.15 59.04C135.737 58.7733 135.23 58.52 134.63 58.28C134.043 58.0267 133.343 57.8133 132.53 57.64C131.73 57.4667 130.777 57.38 129.67 57.38C128.057 57.38 126.597 57.6467 125.29 58.18C123.983 58.7 122.87 59.4533 121.95 60.44C121.03 61.4133 120.323 62.6 119.83 64C119.337 65.3867 119.09 66.9467 119.09 68.68C119.09 70.48 119.343 72.0933 119.85 73.52C120.37 74.9333 121.103 76.14 122.05 77.14C123.01 78.1267 124.17 78.88 125.53 79.4C126.89 79.92 128.417 80.18 130.11 80.18C130.777 80.18 131.397 80.14 131.97 80.06C132.557 79.98 133.117 79.8733 133.65 79.74C134.183 79.5933 134.697 79.42 135.19 79.22C135.683 79.0067 136.183 78.7667 136.69 78.5V72.18H132.23C131.977 72.18 131.77 72.1067 131.61 71.96C131.463 71.8133 131.39 71.6333 131.39 71.42V69.22H140.19V80.22ZM172.609 68.68C172.609 70.8267 172.269 72.8 171.589 74.6C170.909 76.3867 169.949 77.9267 168.709 79.22C167.469 80.5133 165.975 81.52 164.229 82.24C162.495 82.9467 160.575 83.3 158.469 83.3C156.362 83.3 154.442 82.9467 152.709 82.24C150.975 81.52 149.489 80.5133 148.249 79.22C147.009 77.9267 146.049 76.3867 145.369 74.6C144.689 72.8 144.349 70.8267 144.349 68.68C144.349 66.5333 144.689 64.5667 145.369 62.78C146.049 60.98 147.009 59.4333 148.249 58.14C149.489 56.8333 150.975 55.82 152.709 55.1C154.442 54.38 156.362 54.02 158.469 54.02C160.575 54.02 162.495 54.38 164.229 55.1C165.975 55.82 167.469 56.8333 168.709 58.14C169.949 59.4333 170.909 60.98 171.589 62.78C172.269 64.5667 172.609 66.5333 172.609 68.68ZM168.629 68.68C168.629 66.92 168.389 65.34 167.909 63.94C167.429 62.54 166.749 61.36 165.869 60.4C164.989 59.4267 163.922 58.68 162.669 58.16C161.415 57.64 160.015 57.38 158.469 57.38C156.935 57.38 155.542 57.64 154.289 58.16C153.035 58.68 151.962 59.4267 151.069 60.4C150.189 61.36 149.509 62.54 149.029 63.94C148.549 65.34 148.309 66.92 148.309 68.68C148.309 70.44 148.549 72.02 149.029 73.42C149.509 74.8067 150.189 75.9867 151.069 76.96C151.962 77.92 153.035 78.66 154.289 79.18C155.542 79.6867 156.935 79.94 158.469 79.94C160.015 79.94 161.415 79.6867 162.669 79.18C163.922 78.66 164.989 77.92 165.869 76.96C166.749 75.9867 167.429 74.8067 167.909 73.42C168.389 72.02 168.629 70.44 168.629 68.68Z" fill="#DCDCDC"/>
</svg>
