<svg width="39" height="44" viewBox="0 0 39 44" fill="none" xmlns="http://www.w3.org/2000/svg">
<path d="M23.9289 19.5192L23.9289 19.5192C23.7035 19.6642 23.4365 19.7371 23.1699 19.7371C22.9771 19.7371 22.7827 19.6991 22.6023 19.6209C22.6022 19.6209 22.6022 19.6209 22.6022 19.6209L22.6618 19.4833C22.2785 19.3174 22.0366 18.9792 22.0366 18.6092L23.9289 19.5192ZM23.9289 19.5192L26.3488 17.9623L28.7542 19.5076C29.1412 19.7562 29.653 19.7938 30.0805 19.6085C30.5095 19.4227 30.7957 19.0358 30.7957 18.597V11.0623H35.5959V41.8942H8.59465V11.0624H21.8866L23.9289 19.5192ZM32.9721 5.4561C32.9721 4.00702 34.0577 2.75276 35.5958 2.29257V8.61976C34.0577 8.15955 32.9721 6.90515 32.9721 5.4561ZM36.8794 -0.15H7.31119C3.76276 -0.15 0.837183 2.34482 0.837183 5.45618V38.5439C0.837183 41.6554 3.76287 44.1501 7.31139 44.1501H36.8795C37.5667 44.1501 38.163 43.6652 38.163 43.0222C38.163 43.0005 38.161 42.9764 38.1598 42.9609C38.1611 42.945 38.163 42.9216 38.163 42.8993V9.93448V0.977885C38.1628 0.334889 37.5665 -0.15 36.8794 -0.15ZM6.02784 41.7076C4.48961 41.2473 3.4041 39.993 3.4041 38.544V9.92301C4.16586 10.4236 5.05843 10.7806 6.02784 10.9501V41.7076ZM7.31119 8.80651C5.13536 8.80651 3.404 7.28331 3.404 5.45618C3.404 3.62906 5.13546 2.10586 7.31119 2.10586H31.6922C30.8864 3.03903 30.4053 4.19846 30.4053 5.45618C30.4053 6.71391 30.8864 7.87334 31.6922 8.80651H29.5123H23.1702H7.31119ZM28.2286 11.0624V16.3751L27.1062 15.654C26.6549 15.364 26.0407 15.3641 25.5894 15.6545L24.4535 16.3853V11.0624H28.2286Z" fill="#454D66" stroke="#454D66" stroke-width="0.3"/>
</svg>
